	void bill() throws IOException {
		int userqty = 0;
		int i = 0;
		int id1 = 0;
		String updatedline = null;
		String line = null;

		for (i = 0; i < l.size(); i += 2) {
			f = new File("C:\\Users\\intimetec\\Desktop\\Resto\\MENU1.txt");
			fr = new FileReader(f);
			br = new BufferedReader(fr);
			id1 = l.get(i);
			userqty = l.get(i + 1);
						while ((line = br.readLine()) != null) {
				String [] words = line.split("\t");
				if(words[0].equals(Integer.toString(id1))){
					System.out.println(" Item "+ words[1]+"  quantity " + userqty);

					int fileqnty = Integer.parseInt(words[2]);
					int newqnty = fileqnty - userqty;
//					updatedline = line.replace(Integer.toString(fileqnty), Integer.toString(newqnty));
					updatedline = line.replaceFirst(Integer.toString(fileqnty), Integer.toString(newqnty));
							
				
				}
				}
			System.out.println("New line to print "+ updatedline);		
			
			}
			br.close();

		
		System.out.println("Order list" + l);

		System.out.println("sum " + sum);
	}